%YAML 1.1
%TAG !u! tag:unity3d.com,2011:
--- !u!1045 &1
EditorBuildSettings:
  m_ObjectHideFlags: 0
  serializedVersion: 2
  m_Scenes:
  - enabled: 1
    path: Assets/Scenes/Scene One.unity
    guid: 68995aafc0241a249bdd36c0ce640995
  - enabled: 1
    path: Assets/Scenes/Scene Two.unity
    guid: 0bcc62d012430424fa7452aa9f3f9939
  - enabled: 1
    path: Assets/Scenes/Scene Three.unity
    guid: 7f5723d6002d2a147a0e7ece24955608
  - enabled: 1
    path: Assets/Scenes/Scene Four.unity
    guid: b5e06d3277d5776479ac9a0020d318a4
  m_configObjects: {}
